dplyr 1.2.0 Conversion Cheatsheet
…
✅ No complex negation logic needed

2. OR Logic: | → when_any()

Old Way

# Multiple | operators
penguins |>
  filter(
    (species == "Adelie" & island == "Torgersen" & body_mass_g > 3700) |
    (species == "Gentoo" & body_mass_g > 5000)
  ) |>
  select(species, island, body_mass_g)

# A tibble: 83 × 3
   species island    body_mass_g
   <fct>   <fct>           <int>
 1 Adelie  Torgersen        3750
 2 Adelie  Torgersen        3800
 3 Adelie  Torgersen        4675
 4 Adelie  Torgersen        4250
 5 Adelie  Torgersen        3800
 6 Adelie  Torgersen        4400
 7 Adelie  Torgersen        4500
 8 Adelie  Torgersen        4200
 9 Adelie  Torgersen        4450
10 Adelie  Torgersen        3900
# ℹ 73 more rows

New Way

# Clean OR logic with when_any()
penguins |>
  filter(
    when_any(
      when_all(species == "Adelie", island == "Torgersen", body_mass_g > 3700),
      when_all(species == "Gentoo", body_mass_g > 5000)
    )
  ) |>
  select(species, island, body_mass_g)

# A tibble: 83 × 3
   species island    body_mass_g
   <fct>   <fct>           <int>
 1 Adelie  Torgersen        3750
 2 Adelie  Torgersen        3800
 3 Adelie  Torgersen        4675
 4 Adelie  Torgersen        4250
 5 Adelie  Torgersen        3800
 6 Adelie  Torgersen        4400
 7 Adelie  Torgersen        4500
 8 Adelie  Torgersen        4200
 9 Adelie  Torgersen        4450
10 Adelie  Torgersen        3900
# ℹ 73 more rows
…
✅ Nests cleanly with when_all()

✅ Easier to add/remove conditions

3. Simple OR: | → when_any()

Old Way

# Simple OR with |
penguins |>
  filter(species == "Adelie" | body_mass_g > 5000) |>
  select(species, island, body_mass_g)

# A tibble: 213 × 3
   species island    body_mass_g
   <fct>   <fct>           <int>
 1 Adelie  Torgersen        3750
 2 Adelie  Torgersen        3800
 3 Adelie  Torgersen        3250
 4 Adelie  Torgersen          NA
 5 Adelie  Torgersen        3450
 6 Adelie  Torgersen        3650
 7 Adelie  Torgersen        3625
 8 Adelie  Torgersen        4675
 9 Adelie  Torgersen        3475
10 Adelie  Torgersen        4250
# ℹ 203 more rows

New Way

# Explicit OR
penguins |>
  filter(when_any(species == "Adelie", body_mass_g > 5000)) |>
  select(species, island, body_mass_g)

# A tibble: 213 × 3
   species island    body_mass_g
   <fct>   <fct>           <int>
 1 Adelie  Torgersen        3750
 2 Adelie  Torgersen        3800
 3 Adelie  Torgersen        3250
 4 Adelie  Torgersen          NA
 5 Adelie  Torgersen        3450
 6 Adelie  Torgersen        3650
 7 Adelie  Torgersen        3625
 8 Adelie  Torgersen        4675
 9 Adelie  Torgersen        3475
10 Adelie  Torgersen        4250
# ℹ 203 more rows
…
