Exercises: Pre-dplyr 1.2.0 Patterns
…
# Helpful counts — how many rows do we expect?
cat("Adelie rows:", sum(penguins$species == "Adelie", na.rm = TRUE), "\n")

Adelie rows: 152 

cat("body_mass_g > 5000 (non-Adelie):",
    sum(penguins$body_mass_g > 5000 & penguins$species != "Adelie", na.rm = TRUE), "\n")

body_mass_g > 5000 (non-Adelie): 61 

penguins |>
  filter(species == "Adelie" | body_mass_g > 5000) |>
  select(species, island, body_mass_g)

# A tibble: 213 × 3
   species island    body_mass_g
   <fct>   <fct>           <int>
 1 Adelie  Torgersen        3750
 2 Adelie  Torgersen        3800
 3 Adelie  Torgersen        3250
 4 Adelie  Torgersen          NA
 5 Adelie  Torgersen        3450
 6 Adelie  Torgersen        3650
 7 Adelie  Torgersen        3625
 8 Adelie  Torgersen        4675
 9 Adelie  Torgersen        3475
10 Adelie  Torgersen        4250
# ℹ 203 more rows
…
