Old Patterns - Pre-dplyr 1.2.0
…
Problem with NA handling:

# Create data with NA
penguins_na <- penguins |>
  mutate(island = if_else(row_number() == 1, NA_character_, island))

# Using ! drops both the target AND NAs!
penguins_na |>
  filter(!(island == "Torgersen" & body_mass_g > 4000))

# A tibble: 332 × 8
   species island    bill_length_mm bill_depth_mm flipper_length_mm body_mass_g
   <fct>   <chr>              <dbl>         <dbl>             <int>       <int>
 1 Adelie  <NA>                39.1          18.7               181        3750
 2 Adelie  Torgersen           39.5          17.4               186        3800
 3 Adelie  Torgersen           40.3          18                 195        3250
 4 Adelie  Torgersen           36.7          19.3               193        3450
 5 Adelie  Torgersen           39.3          20.6               190        3650
 6 Adelie  Torgersen           38.9          17.8               181        3625
 7 Adelie  Torgersen           34.1          18.1               193        3475
 8 Adelie  Torgersen           37.8          17.1               186        3300
 9 Adelie  Torgersen           37.8          17.3               180        3700
10 Adelie  Torgersen           41.1          17.6               182        3200
# ℹ 322 more rows
# ℹ 2 more variables: sex <fct>, year <int>

Correct but complex workaround:

penguins_na |>
  filter(
    !((island == "Torgersen" & !is.na(island)) &
      (body_mass_g > 4000 & !is.na(body_mass_g)))
  )

# A tibble: 333 × 8
   species island    bill_length_mm bill_depth_mm flipper_length_mm body_mass_g
   <fct>   <chr>              <dbl>         <dbl>             <int>       <int>
 1 Adelie  <NA>                39.1          18.7               181        3750
 2 Adelie  Torgersen           39.5          17.4               186        3800
 3 Adelie  Torgersen           40.3          18                 195        3250
 4 Adelie  Torgersen           NA            NA                  NA          NA
 5 Adelie  Torgersen           36.7          19.3               193        3450
 6 Adelie  Torgersen           39.3          20.6               190        3650
 7 Adelie  Torgersen           38.9          17.8               181        3625
 8 Adelie  Torgersen           34.1          18.1               193        3475
 9 Adelie  Torgersen           37.8          17.1               186        3300
10 Adelie  Torgersen           37.8          17.3               180        3700
# ℹ 323 more rows
# ℹ 2 more variables: sex <fct>, year <int>

Complex OR Logic (Old Way)

Problem: Multiple | operators become hard to read

# Keep Adelie from Torgersen with body mass > 3700g OR Gentoo with body mass > 5000g
penguins |>
  filter(
    (species == "Adelie" & island == "Torgersen" & body_mass_g > 3700) |
    (species == "Gentoo" & body_mass_g > 5000)
  ) |>
  select(species, island, body_mass_g)

# A tibble: 83 × 3
   species island    body_mass_g
   <fct>   <fct>           <int>
 1 Adelie  Torgersen        3750
 2 Adelie  Torgersen        3800
 3 Adelie  Torgersen        4675
 4 Adelie  Torgersen        4250
 5 Adelie  Torgersen        3800
 6 Adelie  Torgersen        4400
 7 Adelie  Torgersen        4500
 8 Adelie  Torgersen        4200
 9 Adelie  Torgersen        4450
10 Adelie  Torgersen        3900
# ℹ 73 more rows

Complex AND Logic (Old Way)

Problem: Nested conditions are hard to track

# Keep only Adelie from Torgersen with body mass > 3700g
penguins |>
  filter(
    species == "Adelie" &
    island == "Torgersen" &
    body_mass_g > 3700
  ) |>
  select(species, island, body_mass_g)

# A tibble: 22 × 3
   species island    body_mass_g
   <fct>   <fct>           <int>
 1 Adelie  Torgersen        3750
 2 Adelie  Torgersen        3800
 3 Adelie  Torgersen        4675
 4 Adelie  Torgersen        4250
 5 Adelie  Torgersen        3800
 6 Adelie  Torgersen        4400
 7 Adelie  Torgersen        4500
 8 Adelie  Torgersen        4200
 9 Adelie  Torgersen        4450
10 Adelie  Torgersen        3900
# ℹ 12 more rows

Nested OR and AND:

# Complex: (Adelie from Torgersen with mass > 3700) OR (Gentoo from Biscoe)
penguins |>
  filter(
    ((species == "Adelie" & island == "Torgersen") & body_mass_g > 3700) |
    (species == "Gentoo" & island == "Biscoe")
  ) |>
  select(species, island, body_mass_g)

# A tibble: 146 × 3
   species island    body_mass_g
   <fct>   <fct>           <int>
 1 Adelie  Torgersen        3750
 2 Adelie  Torgersen        3800
 3 Adelie  Torgersen        4675
 4 Adelie  Torgersen        4250
 5 Adelie  Torgersen        3800
 6 Adelie  Torgersen        4400
 7 Adelie  Torgersen        4500
 8 Adelie  Torgersen        4200
 9 Adelie  Torgersen        4450
10 Adelie  Torgersen        3900
# ℹ 136 more rows
…
