Solutions: dplyr 1.2.0 New Functions
…
No need to negate (!) or manually guard against NAs

Solution 2 → Exercise 2: when_any() (simple OR)

Task: Keep rows where species == "Adelie" or body_mass_g > 5000.

penguins |>
  filter(when_any(
    species == "Adelie",
    body_mass_g > 5000
  )) |>
  select(species, island, body_mass_g)

# A tibble: 213 × 3
   species island    body_mass_g
   <fct>   <fct>           <int>
 1 Adelie  Torgersen        3750
 2 Adelie  Torgersen        3800
 3 Adelie  Torgersen        3250
 4 Adelie  Torgersen          NA
 5 Adelie  Torgersen        3450
 6 Adelie  Torgersen        3650
 7 Adelie  Torgersen        3625
 8 Adelie  Torgersen        4675
 9 Adelie  Torgersen        3475
10 Adelie  Torgersen        4250
# ℹ 203 more rows
…
